-44.80000,-7.59500,-1.03000 
-42.00000,-7.59500,-0.38250 
-39.20000,-7.59500,0.20000 
-36.40000,-7.59500,0.72500 
-33.60000,-7.59500,1.18000 
-30.80000,-7.59500,1.54500 
-28.00000,-7.59500,1.82250 
-25.20000,-7.59500,1.99000 
-22.40000,-7.59500,6.87250 
-19.60000,-7.59500,2.11000 
-16.80000,-7.59500,2.08500 
-14.00000,-7.59500,1.96750 
-11.20000,-7.59500,1.74000 
-8.40000,-7.59500,1.41500 
-5.60000,-7.59500,0.99000 
-2.80000,-7.59500,0.48500 
-0.00250,-7.59500,-0.10500 
2.79750,-7.59500,-0.76500 
5.59750,-7.59500,-1.46750 
8.39750,-7.59500,-2.19000 
11.19750,-7.59500,-2.92000 
13.99750,-7.59500,-3.63250 
16.79750,-7.59500,-4.29250 
19.59750,-7.59500,-4.86000 
22.39750,-7.59500,-5.32250 
25.19750,-7.59500,-5.68000 
27.99750,-7.59500,-5.96250 
30.79750,-7.59500,-6.17750 
33.59750,-7.59500,-6.32250 
36.39750,-7.59500,-6.40500 
39.19750,-7.59500,-6.40750 
41.99750,-7.59500,-6.31750 
44.79750,-7.59500,-6.16250 
-44.80000,-5.04500,-0.92000 
-42.00000,-5.04500,-0.26500 
-39.20000,-5.04500,0.32250 
-36.40000,-5.04500,0.83500 
-33.60000,-5.04500,1.27750 
-30.80000,-5.04500,1.62750 
-28.00000,-5.04500,1.89250 
-25.20000,-5.04500,2.08250 
-22.40000,-5.04500,2.19000 
-19.60000,-5.04500,2.23250 
-16.80000,-5.04500,2.21000 
-14.00000,-5.04500,2.08000 
-11.20000,-5.04500,1.83750 
-8.40000,-5.04500,1.48750 
-5.60000,-5.04500,1.04750 
-2.80000,-5.04500,0.53250 
-0.00250,-5.04500,-0.06250 
2.79750,-5.04500,-0.71750 
5.59750,-5.04500,-1.42750 
8.39750,-5.04500,-2.15750 
11.19750,-5.04500,-2.90250 
13.99750,-5.04500,-3.64500 
16.79750,-5.04500,-4.32500 
19.59750,-5.04500,-4.91500 
22.39750,-5.04500,-5.39000 
25.19750,-5.04500,-5.77250 
27.99750,-5.04500,-6.06250 
30.79750,-5.04500,-6.27750 
33.59750,-5.04500,-6.42500 
36.39750,-5.04500,-6.50750 
39.19750,-5.04500,-6.51250 
41.99750,-5.04500,-6.43750 
44.79750,-5.04500,-6.30250 
-44.80000,-2.49750,-0.86750 
-42.00000,-2.49750,-0.21500 
-39.20000,-2.49750,0.37500 
-36.40000,-2.49750,0.88250 
-33.60000,-2.49750,1.30500 
-30.80000,-2.49750,1.63500 
-28.00000,-2.49750,1.89500 
-25.20000,-2.49750,2.09750 
-22.40000,-2.49750,2.23500 
-19.60000,-2.49750,2.29750 
-16.80000,-2.49750,2.28000 
-14.00000,-2.49750,2.14500 
-11.20000,-2.49750,1.89750 
-8.40000,-2.49750,1.53500 
-5.60000,-2.49750,1.08500 
-2.80000,-2.49750,0.57250 
-0.00250,-2.49750,-0.02500 
2.79750,-2.49750,-0.68000 
5.59750,-2.49750,-1.39000 
8.39750,-2.49750,-2.11750 
11.19750,-2.49750,-2.86750 
13.99750,-2.49750,-3.62250 
16.79750,-2.49750,-4.33750 
19.59750,-2.49750,-4.95000 
22.39750,-2.49750,-5.43000 
25.19750,-2.49750,-5.82000 
27.99750,-2.49750,-6.11750 
30.79750,-2.49750,-6.34000 
33.59750,-2.49750,-6.49250 
36.39750,-2.49750,-6.57500 
39.19750,-2.49750,-6.59250 
41.99750,-2.49750,-6.53000 
44.79750,-2.49750,-6.41500 
-44.80000,0.05250,-0.87250 
-42.00000,0.05250,-0.22250 
-39.20000,0.05250,0.36250 
-36.40000,0.05250,0.85750 
-33.60000,0.05250,1.26750 
-30.80000,0.05250,1.58500 
-28.00000,0.05250,1.84000 
-25.20000,0.05250,2.05500 
-22.40000,0.05250,2.21250 
-19.60000,0.05250,2.29250 
-16.80000,0.05250,2.29500 
-14.00000,0.05250,2.17250 
-11.20000,0.05250,1.92500 
-8.40000,0.05250,1.56500 
-5.60000,0.05250,1.12250 
-2.80000,0.05250,0.60000 
-0.00250,0.05250,0.01000 
2.79750,0.05250,-0.63500 
5.59750,0.05250,-1.34000 
8.39750,0.05250,-2.06250 
11.19750,0.05250,-2.81500 
13.99750,0.05250,-3.57500 
16.79750,0.05250,-4.30750 
19.59750,0.05250,-4.93750 
22.39750,0.05250,-5.43500 
25.19750,0.05250,-5.83250 
27.99750,0.05250,-6.13750 
30.79750,0.05250,-6.37000 
33.59750,0.05250,-6.52750 
36.39750,0.05250,-6.62000 
39.19750,0.05250,-6.64000 
41.99750,0.05250,-6.60250 
44.79750,0.05250,-6.50000 
-44.80000,2.60250,-0.93500 
-42.00000,2.60250,-0.30000 
-39.20000,2.60250,0.26500 
-36.40000,2.60250,0.74250 
-33.60000,2.60250,1.15000 
-30.80000,2.60250,1.47500 
-28.00000,2.60250,1.73750 
-25.20000,2.60250,1.96000 
-22.40000,2.60250,2.13000 
-19.60000,2.60250,2.23250 
-16.80000,2.60250,2.25250 
-14.00000,2.60250,2.15000 
-11.20000,2.60250,1.91250 
-8.40000,2.60250,1.56000 
-5.60000,2.60250,1.12750 
-2.80000,2.60250,0.61500 
-0.00250,2.60250,0.03500 
2.79750,2.60250,-0.60500 
5.59750,2.60250,-1.29750 
8.39750,2.60250,-2.01000 
11.19750,2.60250,-2.75250 
13.99750,2.60250,-3.50750 
16.79750,2.60250,-4.24000 
19.59750,2.60250,-4.89000 
22.39750,2.60250,-5.39750 
25.19750,2.60250,-5.80750 
27.99750,2.60250,-6.13250 
30.79750,2.60250,-6.37250 
33.59750,2.60250,-6.54250 
36.39750,2.60250,-6.64500 
39.19750,2.60250,-6.67500 
41.99750,2.60250,-6.65000 
44.79750,2.60250,-6.56750 
-44.80000,5.15250,-1.04500 
-42.00000,5.15250,-0.43750 
-39.20000,5.15250,0.10000 
-36.40000,5.15250,0.55750 
-33.60000,5.15250,0.96750 
-30.80000,5.15250,1.30750 
-28.00000,5.15250,1.58750 
-25.20000,5.15250,1.82250 
-22.40000,5.15250,1.99500 
-19.60000,5.15250,2.11750 
-16.80000,5.15250,2.16500 
-14.00000,5.15250,2.08500 
-11.20000,5.15250,1.86500 
-8.40000,5.15250,1.52250 
-5.60000,5.15250,1.09250 
-2.80000,5.15250,0.59750 
-0.00250,5.15250,0.03500 
2.79750,5.15250,-0.58000 
5.59750,5.15250,-1.25500 
8.39750,5.15250,-1.95250 
11.19750,5.15250,-2.67750 
13.99750,5.15250,-3.41250 
16.79750,5.15250,-4.15000 
19.59750,5.15250,-4.79750 
22.39750,5.15250,-5.32250 
25.19750,5.15250,-5.74750 
27.99750,5.15250,-6.08750 
30.79750,5.15250,-6.34250 
33.59750,5.15250,-6.52750 
36.39750,5.15250,-6.64000 
39.19750,5.15250,-6.69000 
41.99750,5.15250,-6.67500 
44.79750,5.15250,-6.61500 
-44.80000,7.70250,-1.19250 
-42.00000,7.70250,-0.61500 
-39.20000,7.70250,-0.10250 
-36.40000,7.70250,0.34750 
-33.60000,7.70250,0.74250 
-30.80000,7.70250,1.09000 
-28.00000,7.70250,1.38750 
-25.20000,7.70250,1.63250 
-22.40000,7.70250,1.81500 
-19.60000,7.70250,1.95500 
-16.80000,7.70250,2.02750 
-14.00000,7.70250,1.97750 
-11.20000,7.70250,1.76750 
-8.40000,7.70250,1.43500 
-5.60000,7.70250,1.01750 
-2.80000,7.70250,0.54000 
-0.00250,7.70250,0.00500 
2.79750,7.70250,-0.59250 
5.59750,7.70250,-1.23750 
8.39750,7.70250,-1.91250 
11.19750,7.70250,-2.61500 
13.99750,7.70250,-3.32500 
16.79750,7.70250,-4.03750 
19.59750,7.70250,-4.68000 
22.39750,7.70250,-5.22000 
25.19750,7.70250,-5.65750 
27.99750,7.70250,-6.01250 
30.79750,7.70250,-6.29000 
33.59750,7.70250,-6.49000 
36.39750,7.70250,-6.62250 
39.19750,7.70250,-6.68750 
41.99750,7.70250,-6.68750 
44.79750,7.70250,-6.63750 
